…
# Scoring

``` r
library(scoringRules)

observed <- sims %>% filter(i == 1) %>% pull(N)
posterior_sims
```

    ## # A tibble: 25,000 × 3
    ##    i         t     N
    ##    <chr> <int> <dbl>
    ##  1 1         1 0.75 
    ##  2 1         2 0.752
    ##  3 1         3 0.744
    ##  4 1         4 0.748
    ##  5 1         5 0.756
    ##  6 1         6 0.768
    ##  7 1         7 0.777
    ##  8 1         8 0.780
    ##  9 1         9 0.797
    ## 10 1        10 0.784
    ## # … with 24,990 more rows
…
